module github.com/diamondburned/gtkcord3

go 1.13

require (
	github.com/Xuanwo/go-locale v0.1.0
	github.com/alecthomas/chroma v0.7.1
	github.com/davecgh/go-spew v1.1.1
	github.com/diamondburned/arikawa v0.4.2-0.20200420233301-610c19efea80
	github.com/diamondburned/handy v0.0.0-20200414224132-c3e0f714a29e
	github.com/disintegration/imaging v1.6.2
	github.com/goodsign/monday v1.0.0
	github.com/gotk3/gotk3 v0.4.1-0.20200419120351-72ea2e79ea22
	github.com/logrusorgru/aurora v0.0.0-20200102142835-e9ef32dff381
	github.com/markbates/pkger v0.15.1
	github.com/mattn/go-isatty v0.0.12 // indirect
	github.com/petermattis/goid v0.0.0-20180202154549-b0b1615b78e5 // indirect
	github.com/pkg/errors v0.9.1
	github.com/sasha-s/go-deadlock v0.2.0
	github.com/sergi/go-diff v1.1.0 // indirect
	github.com/skratchdot/open-golang v0.0.0-20200116055534-eef842397966
	github.com/stretchr/objx v0.1.1 // indirect
	github.com/yuin/goldmark v1.1.27
	github.com/zalando/go-keyring v0.0.0-20200121091418-667557018717
	golang.org/x/net v0.0.0-20200226121028-0de0cce0169b // indirect
	golang.org/x/sync v0.0.0-20200317015054-43a5402ce75a
	golang.org/x/sys v0.0.0-20200323222414-85ca7c5b95cd // indirect
	gopkg.in/yaml.v2 v2.2.8 // indirect
)
